%!PS-Adobe-3.0 EPSF-3.0
%%DocumentNeededResources: font ArialMT
%%+ font Arial-BoldMT
%%+ font Arial-ItalicMT
%%+ font Arial-BoldItalicMT
%%+ font Symbol
%%Title: R Graphics Output
%%Creator: R Software
%%Pages: (atend)
%%BoundingBox: 0 0 492 216
%%EndComments
%%BeginProlog
/bp  { gs sRGB gs } def
% begin .ps.prolog
/gs  { gsave } bind def
/gr  { grestore } bind def
/ep  { showpage gr gr } bind def
/m   { moveto } bind def
/l  { rlineto } bind def
/np  { newpath } bind def
/cp  { closepath } bind def
/f   { fill } bind def
/o   { stroke } bind def
/c   { newpath 0 360 arc } bind def
/r   { 4 2 roll moveto 1 copy 3 -1 roll exch 0 exch rlineto 0 rlineto -1 mul 0 exch rlineto closepath } bind def
/p1  { stroke } bind def
/p2  { gsave bg fill grestore newpath } bind def
/p3  { gsave bg fill grestore stroke } bind def
/p6  { gsave bg eofill grestore newpath } bind def
/p7  { gsave bg eofill grestore stroke } bind def
/t   { 5 -2 roll moveto gsave rotate
       1 index stringwidth pop
       mul neg 0 rmoveto show grestore } bind def
/ta  { 4 -2 roll moveto gsave rotate show } bind def
/tb  { 2 -1 roll 0 rmoveto show } bind def
/cl  { grestore gsave newpath 3 index 3 index moveto 1 index
       4 -1 roll lineto  exch 1 index lineto lineto
       closepath clip newpath } bind def
/rgb { setrgbcolor } bind def
/s   { scalefont setfont } bind def
% end   .ps.prolog
/sRGB { [ /CIEBasedABC
          << /DecodeLMN
               [ { dup 0.03928 le
                        {12.92321 div}
                        {0.055 add 1.055 div 2.4 exp }
                     ifelse
                 } bind dup dup
               ]
             /MatrixLMN [0.412457 0.212673 0.019334
                         0.357576 0.715152 0.119192
                         0.180437 0.072175 0.950301]
             /WhitePoint [0.9505 1.0 1.0890]
           >>
         ] setcolorspace } bind def
/srgb { setcolor } bind def
%%IncludeResource: font ArialMT
/ArialMT findfont
dup length dict begin
  {1 index /FID ne {def} {pop pop} ifelse} forall
  /Encoding ISOLatin1Encoding def
  currentdict
  end
/Font1 exch definefont pop
%%IncludeResource: font Arial-BoldMT
/Arial-BoldMT findfont
dup length dict begin
  {1 index /FID ne {def} {pop pop} ifelse} forall
  /Encoding ISOLatin1Encoding def
  currentdict
  end
/Font2 exch definefont pop
%%IncludeResource: font Arial-ItalicMT
/Arial-ItalicMT findfont
dup length dict begin
  {1 index /FID ne {def} {pop pop} ifelse} forall
  /Encoding ISOLatin1Encoding def
  currentdict
  end
/Font3 exch definefont pop
%%IncludeResource: font Arial-BoldItalicMT
/Arial-BoldItalicMT findfont
dup length dict begin
  {1 index /FID ne {def} {pop pop} ifelse} forall
  /Encoding ISOLatin1Encoding def
  currentdict
  end
/Font4 exch definefont pop
%%IncludeResource: font Symbol
/Symbol findfont
dup length dict begin
  {1 index /FID ne {def} {pop pop} ifelse} forall
  currentdict
  end
/Font5 exch definefont pop
%%EndProlog
%%Page: 1 1
bp
0.00 0.00 491.76 216.00 cl
/bg { 0.4980 0.4980 0.4980 srgb } def
74.75 46.08 12.30 11.01 r p2
87.05 46.08 12.30 6.81 r p2
99.34 46.08 12.30 4.28 r p2
111.64 46.08 12.30 29.00 r p2
123.94 46.08 12.30 57.33 r p2
136.24 46.08 12.30 16.24 r p2
148.54 46.08 12.30 15.00 r p2
160.84 46.08 12.30 10.66 r p2
173.14 46.08 12.30 14.16 r p2
185.44 46.08 12.30 86.03 r p2
197.74 46.08 12.30 30.08 r p2
210.03 46.08 12.30 17.13 r p2
222.33 46.08 12.30 21.52 r p2
234.63 46.08 12.30 25.82 r p2
246.93 46.08 12.30 19.12 r p2
259.23 46.08 12.30 123.71 r p2
271.53 46.08 12.30 32.72 r p2
283.83 46.08 12.30 36.62 r p2
296.13 46.08 12.30 17.53 r p2
308.42 46.08 12.30 13.79 r p2
320.72 46.08 12.30 0.13 r p2
333.02 46.08 12.30 3.66 r p2
345.32 46.08 12.30 67.37 r p2
357.62 46.08 12.30 0.73 r p2
369.92 46.08 12.30 2.91 r p2
382.22 46.08 12.30 6.22 r p2
394.52 46.08 12.30 22.89 r p2
406.82 46.08 12.30 7.38 r p2
419.11 46.08 12.30 19.68 r p2
0.00 0.00 491.76 216.00 cl
0 0 0 srgb
0.75 setlinewidth
[] 0 setdash
1 setlinecap
1 setlinejoin
10.00 setmiterlimit
np
60.48 46.08 m
0 107.71 l
o
np
60.48 46.08 m
-7.20 0 l
o
np
60.48 73.01 m
-7.20 0 l
o
np
60.48 99.94 m
-7.20 0 l
o
np
60.48 126.86 m
-7.20 0 l
o
np
60.48 153.79 m
-7.20 0 l
o
/Font1 findfont 10 s
46.08 42.50 (0) 1 0 t
46.08 69.43 (1000) 1 0 t
46.08 96.36 (2000) 1 0 t
46.08 123.28 (3000) 1 0 t
46.08 150.21 (4000) 1 0 t
0.00 0.00 491.76 216.00 cl
/bg { 0.7490 0.7490 0.7490 srgb } def
74.75 46.08 12.30 9.10 r p2
87.05 46.08 12.30 5.82 r p2
99.34 46.08 12.30 3.58 r p2
111.64 46.08 12.30 20.87 r p2
123.94 46.08 12.30 54.07 r p2
136.24 46.08 12.30 12.23 r p2
148.54 46.08 12.30 13.84 r p2
160.84 46.08 12.30 7.78 r p2
173.14 46.08 12.30 12.71 r p2
185.44 46.08 12.30 74.43 r p2
197.74 46.08 12.30 27.28 r p2
210.03 46.08 12.30 13.87 r p2
222.33 46.08 12.30 16.78 r p2
234.63 46.08 12.30 19.63 r p2
246.93 46.08 12.30 15.46 r p2
259.23 46.08 12.30 118.64 r p2
271.53 46.08 12.30 28.09 r p2
283.83 46.08 12.30 32.26 r p2
296.13 46.08 12.30 14.97 r p2
308.42 46.08 12.30 10.50 r p2
320.72 46.08 12.30 0.00 r p2
333.02 46.08 12.30 3.42 r p2
345.32 46.08 12.30 56.52 r p2
357.62 46.08 12.30 0.65 r p2
369.92 46.08 12.30 1.40 r p2
382.22 46.08 12.30 5.01 r p2
394.52 46.08 12.30 21.73 r p2
406.82 46.08 12.30 7.16 r p2
419.11 46.08 12.30 16.67 r p2
0.00 0.00 491.76 216.00 cl
0 0 0 srgb
0.75 setlinewidth
[] 0 setdash
1 setlinecap
1 setlinejoin
10.00 setmiterlimit
np
60.48 46.08 m
0 107.71 l
o
np
60.48 46.08 m
-7.20 0 l
o
np
60.48 73.01 m
-7.20 0 l
o
np
60.48 99.94 m
-7.20 0 l
o
np
60.48 126.86 m
-7.20 0 l
o
np
60.48 153.79 m
-7.20 0 l
o
/Font1 findfont 10 s
46.08 42.50 (0) 1 0 t
46.08 69.43 (1000) 1 0 t
46.08 96.36 (2000) 1 0 t
46.08 123.28 (3000) 1 0 t
46.08 150.21 (4000) 1 0 t
0.00 0.00 491.76 216.00 cl
/Font1 findfont 10 s
0 0 0 srgb
84.42 45.44 (C01) 1 80.00 t
96.72 45.44 (C02) 1 80.00 t
109.01 45.45 (C03) 1 80.00 t
121.32 45.44 (C04) 1 80.00 t
133.62 45.44 (C05) 1 80.00 t
145.92 45.44 (C06) 1 80.00 t
158.21 45.44 (C07) 1 80.00 t
170.51 45.44 (C08) 1 80.00 t
182.81 45.44 (C09) 1 80.00 t
195.11 45.44 (C10) 1 80.00 t
207.41 45.44 (C11) 1 80.00 t
219.71 45.44 (C12) 1 80.00 t
232.00 45.45 (C13) 1 80.00 t
244.31 45.44 (C14) 1 80.00 t
256.61 45.44 (C15) 1 80.00 t
268.90 45.44 (C16) 1 80.00 t
281.20 45.44 (C17) 1 80.00 t
293.50 45.44 (C18) 1 80.00 t
305.80 45.44 (C19) 1 80.00 t
318.10 45.44 (C20) 1 80.00 t
330.40 45.44 (C21) 1 80.00 t
342.70 45.44 (C22) 1 80.00 t
354.99 45.45 (C23) 1 80.00 t
367.30 45.44 (C24) 1 80.00 t
379.59 45.44 (C25) 1 80.00 t
391.89 45.44 (C26) 1 80.00 t
404.15 45.45 (F01) 1 80.00 t
416.45 45.45 (F02) 1 80.00 t
428.74 45.45 (F03) 1 80.00 t
60.48 46.08 445.68 169.92 cl
1 0 0 srgb
0.75 setlinewidth
[] 0 setdash
1 setlinecap
1 setlinejoin
10.00 setmiterlimit
np
80.90 67.56 m
12.29 -3.39 l
12.30 2.14 l
12.30 14.46 l
12.30 -27.66 l
12.30 23.54 l
12.30 -21.02 l
12.30 23.88 l
12.30 -20.73 l
12.30 3.99 l
12.29 -5.17 l
12.30 12.02 l
12.30 3.71 l
12.30 2.41 l
12.30 -5.97 l
12.30 -18.63 l
12.30 12.46 l
12.30 -2.79 l
12.30 3.32 l
12.29 11.43 l
12.30 -29.48 l
12.30 8.19 l
12.30 11.74 l
12.30 -6.19 l
12.30 50.40 l
12.30 -40.04 l
12.30 -17.84 l
12.30 -2.65 l
12.29 15.34 l
o
/bg { 1 0 0 srgb } def
80.90 67.56 1.80 c p3
93.19 64.17 1.80 c p3
105.49 66.31 1.80 c p3
117.79 80.77 1.80 c p3
130.09 53.11 1.80 c p3
142.39 76.65 1.80 c p3
154.69 55.63 1.80 c p3
166.99 79.51 1.80 c p3
179.29 58.78 1.80 c p3
191.59 62.77 1.80 c p3
203.88 57.60 1.80 c p3
216.18 69.62 1.80 c p3
228.48 73.33 1.80 c p3
240.78 75.74 1.80 c p3
253.08 69.77 1.80 c p3
265.38 51.14 1.80 c p3
277.68 63.60 1.80 c p3
289.98 60.81 1.80 c p3
302.28 64.13 1.80 c p3
314.57 75.56 1.80 c p3
326.87 46.08 1.80 c p3
339.17 54.27 1.80 c p3
351.47 66.01 1.80 c p3
363.77 59.82 1.80 c p3
376.07 110.22 1.80 c p3
388.37 70.18 1.80 c p3
400.67 52.34 1.80 c p3
412.97 49.69 1.80 c p3
425.26 65.03 1.80 c p3
0.00 0.00 491.76 216.00 cl
1 0 0 srgb
0.75 setlinewidth
[] 0 setdash
1 setlinecap
1 setlinejoin
10.00 setmiterlimit
np
445.68 46.08 m
0 123.84 l
o
np
445.68 46.08 m
7.20 0 l
o
np
445.68 70.85 m
7.20 0 l
o
np
445.68 95.62 m
7.20 0 l
o
np
445.68 120.38 m
7.20 0 l
o
np
445.68 145.15 m
7.20 0 l
o
np
445.68 169.92 m
7.20 0 l
o
/Font1 findfont 10 s
460.08 42.50 (0) 0 0 t
460.08 67.27 (20) 0 0 t
460.08 92.04 (40) 0 0 t
460.08 116.80 (60) 0 0 t
460.08 141.57 (80) 0 0 t
460.08 166.34 (100) 0 0 t
486.00 81.05 (% T) 90 ta
-0.370 (reatable) tb gr
0 0 0 srgb
253.08 5.76 (MeSH Branch) .5 0 t
14.40 108.00 (Frequency) .5 90 t
60.48 46.08 445.68 169.92 cl
1 0 0 srgb
1.50 setlinewidth
[] 0 setdash
1 setlinecap
1 setlinejoin
10.00 setmiterlimit
np
298.88 210.09 m
18.36 0 l
o
/bg { 1 0 0 srgb } def
308.06 210.09 1.53 c p3
/Font1 findfont 10 s
0 0 0 srgb
326.42 206.51 (% Drugged) 0 0 t
ep
%%Trailer
%%Pages: 1
%%EOF
