%!PS-Adobe-3.0 EPSF-3.0
%%DocumentNeededResources: font ArialMT
%%+ font Arial-BoldMT
%%+ font Arial-ItalicMT
%%+ font Arial-BoldItalicMT
%%+ font Symbol
%%Title: R Graphics Output
%%Creator: R Software
%%Pages: (atend)
%%BoundingBox: 0 0 492 432
%%EndComments
%%BeginProlog
/bp  { gs sRGB gs } def
% begin .ps.prolog
/gs  { gsave } bind def
/gr  { grestore } bind def
/ep  { showpage gr gr } bind def
/m   { moveto } bind def
/l  { rlineto } bind def
/np  { newpath } bind def
/cp  { closepath } bind def
/f   { fill } bind def
/o   { stroke } bind def
/c   { newpath 0 360 arc } bind def
/r   { 4 2 roll moveto 1 copy 3 -1 roll exch 0 exch rlineto 0 rlineto -1 mul 0 exch rlineto closepath } bind def
/p1  { stroke } bind def
/p2  { gsave bg fill grestore newpath } bind def
/p3  { gsave bg fill grestore stroke } bind def
/p6  { gsave bg eofill grestore newpath } bind def
/p7  { gsave bg eofill grestore stroke } bind def
/t   { 5 -2 roll moveto gsave rotate
       1 index stringwidth pop
       mul neg 0 rmoveto show grestore } bind def
/ta  { 4 -2 roll moveto gsave rotate show } bind def
/tb  { 2 -1 roll 0 rmoveto show } bind def
/cl  { grestore gsave newpath 3 index 3 index moveto 1 index
       4 -1 roll lineto  exch 1 index lineto lineto
       closepath clip newpath } bind def
/rgb { setrgbcolor } bind def
/s   { scalefont setfont } bind def
% end   .ps.prolog
/sRGB { [ /CIEBasedABC
          << /DecodeLMN
               [ { dup 0.03928 le
                        {12.92321 div}
                        {0.055 add 1.055 div 2.4 exp }
                     ifelse
                 } bind dup dup
               ]
             /MatrixLMN [0.412457 0.212673 0.019334
                         0.357576 0.715152 0.119192
                         0.180437 0.072175 0.950301]
             /WhitePoint [0.9505 1.0 1.0890]
           >>
         ] setcolorspace } bind def
/srgb { setcolor } bind def
%%IncludeResource: font ArialMT
/ArialMT findfont
dup length dict begin
  {1 index /FID ne {def} {pop pop} ifelse} forall
  /Encoding ISOLatin1Encoding def
  currentdict
  end
/Font1 exch definefont pop
%%IncludeResource: font Arial-BoldMT
/Arial-BoldMT findfont
dup length dict begin
  {1 index /FID ne {def} {pop pop} ifelse} forall
  /Encoding ISOLatin1Encoding def
  currentdict
  end
/Font2 exch definefont pop
%%IncludeResource: font Arial-ItalicMT
/Arial-ItalicMT findfont
dup length dict begin
  {1 index /FID ne {def} {pop pop} ifelse} forall
  /Encoding ISOLatin1Encoding def
  currentdict
  end
/Font3 exch definefont pop
%%IncludeResource: font Arial-BoldItalicMT
/Arial-BoldItalicMT findfont
dup length dict begin
  {1 index /FID ne {def} {pop pop} ifelse} forall
  /Encoding ISOLatin1Encoding def
  currentdict
  end
/Font4 exch definefont pop
%%IncludeResource: font Symbol
/Symbol findfont
dup length dict begin
  {1 index /FID ne {def} {pop pop} ifelse} forall
  currentdict
  end
/Font5 exch definefont pop
%%EndProlog
ep
%%Trailer
%%Pages: 0
%%EOF
.68 385.92 cl
60.48 46.08 445.68 385.92 cl
0 0 1 srgb
0.75 setlinewidth
[] 0 setdash
1 setlinecap
1 setlinejoin
10.00 setmiterlimit
np
74.75 373.33 m
35.66 -96.26 l
35.67 -125.01 l
35.67 -60.35 l
35.66 -28.73 l
35.67 -4.31 l
35.67 0 l
35.66 1.43 l
35.67 0 l
35.67 0 l
35.66 0 l
o
74.75 373.33 2.70 c p1
110.41 277.07 2.70 c p1
146.08 152.06 2.70 c p1
181.75 91.71 2.70 c p1
217.41 62.98 2.70 c p1
253.08 58.67 2.70 c p1
288.75 58.67 2.70 c p1
324.41 60.10 2.70 c p1
360.08 60.10 2.70 c p1
395.75 60.10 2.70 c p1
431.41 60.10 2.70 c p1
0.00 0.00 491.76 432.00 cl
0 0 0 srgb
0.75 setlinewidth
[] 0 setdash
1 setlinecap
1 setlinejoin
10.00 setmiterlimit
np
110.41 46.08 m
285.34 0 l
o
np
110.41 46.08 m
0 -7.20 l
o
np
181.75 46.08 m
0 -7.20 l
o
np
253.08 46.08 m
0 -7.20 l
o
np
324.41 46.08 m
0 -7.20 l
o
np
395.75 46.08 m
0 -7.20 l
o
/Font1 findfont 12 s
110.41 20.16 (2) .5 0 t
181.75 20.16 (4) .5 0 t
253.08 20.16 (6) .5 0 t
324.41 20.16 (8) .5 0 t
395.75 20.16 (10) .5 0 t
np
60.48 94.59 m
0 287.36 l
o
np
60.48 94.59 m
-7.20 0 l
o
np
60.48 166.43 m
-7.20 0 l
o
np
60.48 238.27 m
-7.20 0 l
o
np
60.48 310.11 m
-7.20 0 l
o
np
60.48 381.95 m
-7.20 0 l
o
43.20 94.59 (0.030) .5 90 t
43.20 166.43 (0.035) .5 90 t
43.20 238.27 (0.040) .5 90 t
43.20 310.11 (0.045) .5 90 t
43.20 381.95 (0.050) .5 90 t
np
60.48 46.08 m
385.20 0 l
0 339.84 l
-385.20 0 l
0 -339.84 l
o
0.00 0.00 491.76 432.00 cl
/Font1 findfont 12 s
0 0 0 srgb
14.40 216.00 (Indications$fMeasure) .5 90 t
ep
%%Trailer
%%Pages: 1
%%EOF
