%!PS-Adobe-3.0 EPSF-3.0
%%DocumentNeededResources: font ArialMT
%%+ font Arial-BoldMT
%%+ font Arial-ItalicMT
%%+ font Arial-BoldItalicMT
%%+ font Symbol
%%Title: R Graphics Output
%%Creator: R Software
%%Pages: (atend)
%%BoundingBox: 0 0 492 288
%%EndComments
%%BeginProlog
/bp  { gs sRGB gs } def
% begin .ps.prolog
/gs  { gsave } bind def
/gr  { grestore } bind def
/ep  { showpage gr gr } bind def
/m   { moveto } bind def
/l  { rlineto } bind def
/np  { newpath } bind def
/cp  { closepath } bind def
/f   { fill } bind def
/o   { stroke } bind def
/c   { newpath 0 360 arc } bind def
/r   { 4 2 roll moveto 1 copy 3 -1 roll exch 0 exch rlineto 0 rlineto -1 mul 0 exch rlineto closepath } bind def
/p1  { stroke } bind def
/p2  { gsave bg fill grestore newpath } bind def
/p3  { gsave bg fill grestore stroke } bind def
/p6  { gsave bg eofill grestore newpath } bind def
/p7  { gsave bg eofill grestore stroke } bind def
/t   { 5 -2 roll moveto gsave rotate
       1 index stringwidth pop
       mul neg 0 rmoveto show grestore } bind def
/ta  { 4 -2 roll moveto gsave rotate show } bind def
/tb  { 2 -1 roll 0 rmoveto show } bind def
/cl  { grestore gsave newpath 3 index 3 index moveto 1 index
       4 -1 roll lineto  exch 1 index lineto lineto
       closepath clip newpath } bind def
/rgb { setrgbcolor } bind def
/s   { scalefont setfont } bind def
% end   .ps.prolog
/sRGB { [ /CIEBasedABC
          << /DecodeLMN
               [ { dup 0.03928 le
                        {12.92321 div}
                        {0.055 add 1.055 div 2.4 exp }
                     ifelse
                 } bind dup dup
               ]
             /MatrixLMN [0.412457 0.212673 0.019334
                         0.357576 0.715152 0.119192
                         0.180437 0.072175 0.950301]
             /WhitePoint [0.9505 1.0 1.0890]
           >>
         ] setcolorspace } bind def
/srgb { setcolor } bind def
%%IncludeResource: font ArialMT
/ArialMT findfont
dup length dict begin
  {1 index /FID ne {def} {pop pop} ifelse} forall
  /Encoding ISOLatin1Encoding def
  currentdict
  end
/Font1 exch definefont pop
%%IncludeResource: font Arial-BoldMT
/Arial-BoldMT findfont
dup length dict begin
  {1 index /FID ne {def} {pop pop} ifelse} forall
  /Encoding ISOLatin1Encoding def
  currentdict
  end
/Font2 exch definefont pop
%%IncludeResource: font Arial-ItalicMT
/Arial-ItalicMT findfont
dup length dict begin
  {1 index /FID ne {def} {pop pop} ifelse} forall
  /Encoding ISOLatin1Encoding def
  currentdict
  end
/Font3 exch definefont pop
%%IncludeResource: font Arial-BoldItalicMT
/Arial-BoldItalicMT findfont
dup length dict begin
  {1 index /FID ne {def} {pop pop} ifelse} forall
  /Encoding ISOLatin1Encoding def
  currentdict
  end
/Font4 exch definefont pop
%%IncludeResource: font Symbol
/Symbol findfont
dup length dict begin
  {1 index /FID ne {def} {pop pop} ifelse} forall
  currentdict
  end
/Font5 exch definefont pop
%%EndProlog
%%Page: 1 1
bp
46.08 60.48 488.88 227.52 cl
0 0 0 srgb
2.25 setlinewidth
[] 0 setdash
0 setlinecap
1 setlinejoin
10.00 setmiterlimit
np
66.58 66.67 m
32.80 0 l
o
0.75 setlinewidth
[ 2.25 3.75] 0 setdash
1 setlinecap
np
82.98 66.67 m
0 0 l
o
np
82.98 66.67 m
0 0 l
o
0.75 setlinewidth
[] 0 setdash
np
74.78 66.67 m
16.40 0 l
o
np
74.78 66.67 m
16.40 0 l
o
np
66.58 66.67 m
32.80 0 l
0 0 l
-32.80 0 l
0 0 l
o
0.4980 0.4980 0.4980 srgb
82.98 83.85 2.70 c p1
82.98 83.85 2.70 c p1
82.98 83.85 2.70 c p1
82.98 83.85 2.70 c p1
82.98 83.85 2.70 c p1
82.98 83.85 2.70 c p1
82.98 83.85 2.70 c p1
82.98 83.85 2.70 c p1
82.98 83.85 2.70 c p1
82.98 83.85 2.70 c p1
82.98 101.04 2.70 c p1
82.98 118.22 2.70 c p1
82.98 83.85 2.70 c p1
82.98 83.85 2.70 c p1
82.98 83.85 2.70 c p1
82.98 83.85 2.70 c p1
82.98 101.04 2.70 c p1
82.98 83.85 2.70 c p1
82.98 101.04 2.70 c p1
82.98 83.85 2.70 c p1
82.98 101.04 2.70 c p1
82.98 101.04 2.70 c p1
82.98 83.85 2.70 c p1
82.98 101.04 2.70 c p1
82.98 83.85 2.70 c p1
82.98 83.85 2.70 c p1
82.98 101.04 2.70 c p1
82.98 83.85 2.70 c p1
82.98 83.85 2.70 c p1
82.98 83.85 2.70 c p1
82.98 135.41 2.70 c p1
82.98 83.85 2.70 c p1
82.98 83.85 2.70 c p1
82.98 83.85 2.70 c p1
82.98 83.85 2.70 c p1
82.98 83.85 2.70 c p1
82.98 83.85 2.70 c p1
82.98 101.04 2.70 c p1
82.98 83.85 2.70 c p1
82.98 83.85 2.70 c p1
82.98 83.85 2.70 c p1
82.98 83.85 2.70 c p1
82.98 83.85 2.70 c p1
82.98 83.85 2.70 c p1
82.98 83.85 2.70 c p1
82.98 101.04 2.70 c p1
82.98 83.85 2.70 c p1
82.98 83.85 2.70 c p1
82.98 83.85 2.70 c p1
82.98 83.85 2.70 c p1
82.98 152.59 2.70 c p1
82.98 83.85 2.70 c p1
82.98 83.85 2.70 c p1
82.98 83.85 2.70 c p1
82.98 83.85 2.70 c p1
82.98 83.85 2.70 c p1
82.98 83.85 2.70 c p1
82.98 83.85 2.70 c p1
82.98 83.85 2.70 c p1
82.98 83.85 2.70 c p1
82.98 101.04 2.70 c p1
82.98 101.04 2.70 c p1
82.98 118.22 2.70 c p1
82.98 83.85 2.70 c p1
82.98 83.85 2.70 c p1
82.98 83.85 2.70 c p1
82.98 83.85 2.70 c p1
82.98 83.85 2.70 c p1
82.98 118.22 2.70 c p1
82.98 83.85 2.70 c p1
82.98 83.85 2.70 c p1
82.98 83.85 2.70 c p1
82.98 169.78 2.70 c p1
82.98 83.85 2.70 c p1
82.98 83.85 2.70 c p1
82.98 101.04 2.70 c p1
82.98 83.85 2.70 c p1
82.98 83.85 2.70 c p1
82.98 83.85 2.70 c p1
82.98 83.85 2.70 c p1
82.98 83.85 2.70 c p1
82.98 83.85 2.70 c p1
82.98 83.85 2.70 c p1
82.98 83.85 2.70 c p1
82.98 118.22 2.70 c p1
82.98 83.85 2.70 c p1
82.98 83.85 2.70 c p1
82.98 101.04 2.70 c p1
82.98 83.85 2.70 c p1
82.98 83.85 2.70 c p1
82.98 83.85 2.70 c p1
82.98 83.85 2.70 c p1
82.98 83.85 2.70 c p1
82.98 101.04 2.70 c p1
82.98 83.85 2.70 c p1
82.98 83.85 2.70 c p1
82.98 83.85 2.70 c p1
82.98 83.85 2.70 c p1
82.98 83.85 2.70 c p1
82.98 83.85 2.70 c p1
82.98 83.85 2.70 c p1
82.98 83.85 2.70 c p1
82.98 83.85 2.70 c p1
82.98 83.85 2.70 c p1
82.98 83.85 2.70 c p1
82.98 83.85 2.70 c p1
82.98 118.22 2.70 c p1
82.98 83.85 2.70 c p1
82.98 83.85 2.70 c p1
82.98 118.22 2.70 c p1
82.98 118.22 2.70 c p1
82.98 83.85 2.70 c p1
82.98 83.85 2.70 c p1
82.98 83.85 2.70 c p1
82.98 83.85 2.70 c p1
82.98 83.85 2.70 c p1
82.98 135.41 2.70 c p1
82.98 83.85 2.70 c p1
82.98 83.85 2.70 c p1
82.98 83.85 2.70 c p1
82.98 83.85 2.70 c p1
82.98 83.85 2.70 c p1
82.98 101.04 2.70 c p1
82.98 83.85 2.70 c p1
82.98 83.85 2.70 c p1
82.98 83.85 2.70 c p1
82.98 83.85 2.70 c p1
82.98 83.85 2.70 c p1
82.98 83.85 2.70 c p1
0 0 0 srgb
2.25 setlinewidth
[] 0 setdash
0 setlinecap
np
107.58 66.67 m
32.80 0 l
o
0.75 setlinewidth
[ 2.25 3.75] 0 setdash
1 setlinecap
np
123.98 66.67 m
0 0 l
o
np
123.98 101.04 m
0 -17.19 l
o
0.75 setlinewidth
[] 0 setdash
np
115.78 66.67 m
16.40 0 l
o
np
115.78 101.04 m
16.40 0 l
o
np
107.58 66.67 m
32.80 0 l
0 17.18 l
-32.80 0 l
0 -17.18 l
o
0.4980 0.4980 0.4980 srgb
123.98 152.59 2.70 c p1
123.98 135.41 2.70 c p1
123.98 118.22 2.70 c p1
123.98 152.59 2.70 c p1
123.98 118.22 2.70 c p1
123.98 152.59 2.70 c p1
123.98 135.41 2.70 c p1
123.98 152.59 2.70 c p1
123.98 118.22 2.70 c p1
123.98 169.78 2.70 c p1
123.98 169.78 2.70 c p1
123.98 152.59 2.70 c p1
123.98 135.41 2.70 c p1
123.98 118.22 2.70 c p1
123.98 118.22 2.70 c p1
123.98 135.41 2.70 c p1
123.98 152.59 2.70 c p1
123.98 135.41 2.70 c p1
123.98 118.22 2.70 c p1
123.98 152.59 2.70 c p1
123.98 118.22 2.70 c p1
123.98 118.22 2.70 c p1
123.98 135.41 2.70 c p1
123.98 118.22 2.70 c p1
123.98 152.59 2.70 c p1
123.98 135.41 2.70 c p1
123.98 152.59 2.70 c p1
123.98 135.41 2.70 c p1
123.98 118.22 2.70 c p1
123.98 135.41 2.70 c p1
123.98 118.22 2.70 c p1
123.98 152.59 2.70 c p1
123.98 118.22 2.70 c p1
123.98 118.22 2.70 c p1
123.98 118.22 2.70 c p1
123.98 118.22 2.70 c p1
123.98 118.22 2.70 c p1
123.98 118.22 2.70 c p1
123.98 152.59 2.70 c p1
123.98 118.22 2.70 c p1
123.98 118.22 2.70 c p1
123.98 135.41 2.70 c p1
123.98 152.59 2.70 c p1
123.98 135.41 2.70 c p1
123.98 118.22 2.70 c p1
123.98 118.22 2.70 c p1
123.98 152.59 2.70 c p1
123.98 135.41 2.70 c p1
123.98 135.41 2.70 c p1
123.98 152.59 2.70 c p1
123.98 118.22 2.70 c p1
123.98 135.41 2.70 c p1
123.98 118.22 2.70 c p1
123.98 118.22 2.70 c p1
123.98 169.78 2.70 c p1
123.98 135.41 2.70 c p1
123.98 118.22 2.70 c p1
123.98 118.22 2.70 c p1
123.98 169.78 2.70 c p1
123.98 152.59 2.70 c p1
123.98 152.59 2.70 c p1
123.98 118.22 2.70 c p1
123.98 135.41 2.70 c p1
123.98 135.41 2.70 c p1
123.98 118.22 2.70 c p1
123.98 118.22 2.70 c p1
123.98 118.22 2.70 c p1
123.98 135.41 2.70 c p1
123.98 152.59 2.70 c p1
123.98 118.22 2.70 c p1
123.98 118.22 2.70 c p1
123.98 118.22 2.70 c p1
123.98 135.41 2.70 c p1
123.98 118.22 2.70 c p1
123.98 118.22 2.70 c p1
123.98 135.41 2.70 c p1
123.98 135.41 2.70 c p1
123.98 118.22 2.70 c p1
123.98 135.41 2.70 c p1
123.98 169.78 2.70 c p1
123.98 135.41 2.70 c p1
123.98 118.22 2.70 c p1
123.98 118.22 2.70 c p1
123.98 118.22 2.70 c p1
123.98 135.41 2.70 c p1
123.98 135.41 2.70 c p1
123.98 135.41 2.70 c p1
123.98 152.59 2.70 c p1
123.98 118.22 2.70 c p1
123.98 118.22 2.70 c p1
123.98 118.22 2.70 c p1
123.98 118.22 2.70 c p1
123.98 118.22 2.70 c p1
123.98 118.22 2.70 c p1
123.98 118.22 2.70 c p1
123.98 118.22 2.70 c p1
123.98 118.22 2.70 c p1
123.98 169.78 2.70 c p1
123.98 118.22 2.70 c p1
123.98 135.41 2.70 c p1
123.98 152.59 2.70 c p1
123.98 118.22 2.70 c p1
123.98 152.59 2.70 c p1
123.98 118.22 2.70 c p1
123.98 135.41 2.70 c p1
123.98 118.22 2.70 c p1
123.98 118.22 2.70 c p1
123.98 152.59 2.70 c p1
123.98 135.41 2.70 c p1
123.98 118.22 2.70 c p1
123.98 118.22 2.70 c p1
123.98 152.59 2.70 c p1
123.98 152.59 2.70 c p1
123.98 152.59 2.70 c p1
123.98 135.41 2.70 c p1
123.98 135.41 2.70 c p1
123.98 152.59 2.70 c p1
123.98 135.41 2.70 c p1
123.98 135.41 2.70 c p1
0 0 0 srgb
2.25 setlinewidth
[] 0 setdash
0 setlinecap
np
148.58 83.85 m
32.80 0 l
o
0.75 setlinewidth
[ 2.25 3.75] 0 setdash
1 setlinecap
np
164.98 66.67 m
0 0 l
o
np
164.98 101.04 m
0 -17.19 l
o
0.75 setlinewidth
[] 0 setdash
np
156.78 66.67 m
16.40 0 l
o
np
156.78 101.04 m
16.40 0 l
o
np
148.58 66.67 m
32.80 0 l
0 17.18 l
-32.80 0 l
0 -17.18 l
o
0.4980 0.4980 0.4980 srgb
164.98 118.22 2.70 c p1
164.98 135.41 2.70 c p1
164.98 118.22 2.70 c p1
164.98 118.22 2.70 c p1
164.98 169.78 2.70 c p1
164.98 118.22 2.70 c p1
164.98 118.22 2.70 c p1
164.98 135.41 2.70 c p1
164.98 152.59 2.70 c p1
164.98 152.59 2.70 c p1
164.98 118.22 2.70 c p1
164.98 118.22 2.70 c p1
164.98 118.22 2.70 c p1
164.98 152.59 2.70 c p1
164.98 118.22 2.70 c p1
164.98 186.96 2.70 c p1
164.98 118.22 2.70 c p1
164.98 135.41 2.70 c p1
164.98 118.22 2.70 c p1
164.98 118.22 2.70 c p1
164.98 118.22 2.70 c p1
164.98 118.22 2.70 c p1
164.98 118.22 2.70 c p1
164.98 118.22 2.70 c p1
164.98 169.78 2.70 c p1
164.98 118.22 2.70 c p1
164.98 118.22 2.70 c p1
164.98 118.22 2.70 c p1
164.98 118.22 2.70 c p1
164.98 118.22 2.70 c p1
164.98 118.22 2.70 c p1
164.98 118.22 2.70 c p1
164.98 152.59 2.70 c p1
164.98 118.22 2.70 c p1
164.98 135.41 2.70 c p1
164.98 135.41 2.70 c p1
164.98 118.22 2.70 c p1
164.98 135.41 2.70 c p1
164.98 118.22 2.70 c p1
164.98 118.22 2.70 c p1
164.98 118.22 2.70 c p1
0 0 0 srgb
2.25 setlinewidth
[] 0 setdash
0 setlinecap
np
189.58 66.67 m
32.80 0 l
o
0.75 setlinewidth
[ 2.25 3.75] 0 setdash
1 setlinecap
np
205.98 66.67 m
0 0 l
o
np
205.98 66.67 m
0 0 l
o
0.75 setlinewidth
[] 0 setdash
np
197.78 66.67 m
16.40 0 l
o
np
197.78 66.67 m
16.40 0 l
o
np
189.58 66.67 m
32.80 0 l
0 0 l
-32.80 0 l
0 0 l
o
0.4980 0.4980 0.4980 srgb
205.98 101.04 2.70 c p1
205.98 83.85 2.70 c p1
205.98 101.04 2.70 c p1
205.98 101.04 2.70 c p1
205.98 101.04 2.70 c p1
205.98 118.22 2.70 c p1
205.98 101.04 2.70 c p1
205.98 118.22 2.70 c p1
205.98 101.04 2.70 c p1
205.98 83.85 2.70 c p1
205.98 83.85 2.70 c p1
205.98 118.22 2.70 c p1
205.98 118.22 2.70 c p1
205.98 118.22 2.70 c p1
205.98 118.22 2.70 c p1
205.98 135.41 2.70 c p1
205.98 83.85 2.70 c p1
205.98 83.85 2.70 c p1
205.98 118.22 2.70 c p1
205.98 83.85 2.70 c p1
205.98 118.22 2.70 c p1
205.98 101.04 2.70 c p1
205.98 118.22 2.70 c p1
205.98 101.04 2.70 c p1
205.98 83.85 2.70 c p1
205.98 83.85 2.70 c p1
205.98 83.85 2.70 c p1
205.98 118.22 2.70 c p1
205.98 135.41 2.70 c p1
205.98 101.04 2.70 c p1
205.98 118.22 2.70 c p1
205.98 135.41 2.70 c p1
205.98 83.85 2.70 c p1
205.98 169.78 2.70 c p1
205.98 83.85 2.70 c p1
205.98 101.04 2.70 c p1
205.98 152.59 2.70 c p1
205.98 101.04 2.70 c p1
205.98 83.85 2.70 c p1
205.98 83.85 2.70 c p1
205.98 83.85 2.70 c p1
205.98 118.22 2.70 c p1
205.98 83.85 2.70 c p1
205.98 83.85 2.70 c p1
205.98 101.04 2.70 c p1
205.98 101.04 2.70 c p1
205.98 83.85 2.70 c p1
205.98 83.85 2.70 c p1
205.98 101.04 2.70 c p1
205.98 83.85 2.70 c p1
205.98 118.22 2.70 c p1
205.98 83.85 2.70 c p1
205.98 101.04 2.70 c p1
205.98 101.04 2.70 c p1
205.98 101.04 2.70 c p1
205.98 83.85 2.70 c p1
205.98 83.85 2.70 c p1
205.98 101.04 2.70 c p1
205.98 83.85 2.70 c p1
205.98 118.22 2.70 c p1
205.98 83.85 2.70 c p1
205.98 118.22 2.70 c p1
205.98 101.04 2.70 c p1
205.98 83.85 2.70 c p1
205.98 101.04 2.70 c p1
205.98 83.85 2.70 c p1
205.98 83.85 2.70 c p1
205.98 83.85 2.70 c p1
205.98 101.04 2.70 c p1
205.98 83.85 2.70 c p1
205.98 118.22 2.70 c p1
205.98 101.04 2.70 c p1
205.98 83.85 2.70 c p1
205.98 101.04 2.70 c p1
205.98 101.04 2.70 c p1
205.98 83.85 2.70 c p1
205.98 83.85 2.70 c p1
205.98 83.85 2.70 c p1
205.98 101.04 2.70 c p1
205.98 118.22 2.70 c p1
205.98 83.85 2.70 c p1
205.98 83.85 2.70 c p1
205.98 101.04 2.70 c p1
205.98 83.85 2.70 c p1
205.98 83.85 2.70 c p1
205.98 83.85 2.70 c p1
205.98 83.85 2.70 c p1
205.98 83.85 2.70 c p1
205.98 101.04 2.70 c p1
205.98 83.85 2.70 c p1
205.98 101.04 2.70 c p1
205.98 101.04 2.70 c p1
205.98 101.04 2.70 c p1
205.98 118.22 2.70 c p1
205.98 83.85 2.70 c p1
205.98 101.04 2.70 c p1
205.98 101.04 2.70 c p1
205.98 118.22 2.70 c p1
205.98 118.22 2.70 c p1
0 0 0 srgb
2.25 setlinewidth
[] 0 setdash
0 setlinecap
np
230.58 118.22 m
32.80 0 l
o
0.75 setlinewidth
[ 2.25 3.75] 0 setdash
1 setlinecap
np
246.98 66.67 m
0 0 l
o
np
246.98 186.96 m
0 -34.37 l
o
0.75 setlinewidth
[] 0 setdash
np
238.78 66.67 m
16.40 0 l
o
np
238.78 186.96 m
16.40 0 l
o
np
230.58 66.67 m
32.80 0 l
0 85.92 l
-32.80 0 l
0 -85.92 l
o
2.25 setlinewidth
[] 0 setdash
0 setlinecap
np
271.58 118.22 m
32.80 0 l
o
0.75 setlinewidth
[ 2.25 3.75] 0 setdash
1 setlinecap
np
287.98 66.67 m
0 34.37 l
o
np
287.98 186.96 m
0 -51.55 l
o
0.75 setlinewidth
[] 0 setdash
np
279.78 66.67 m
16.40 0 l
o
np
279.78 186.96 m
16.40 0 l
o
np
271.58 101.04 m
32.80 0 l
0 34.37 l
-32.80 0 l
0 -34.37 l
o
2.25 setlinewidth
[] 0 setdash
0 setlinecap
np
312.58 101.04 m
32.80 0 l
o
0.75 setlinewidth
[ 2.25 3.75] 0 setdash
1 setlinecap
np
328.98 66.67 m
0 0 l
o
np
328.98 186.96 m
0 -51.55 l
o
0.75 setlinewidth
[] 0 setdash
np
320.78 66.67 m
16.40 0 l
o
np
320.78 186.96 m
16.40 0 l
o
np
312.58 66.67 m
32.80 0 l
0 68.74 l
-32.80 0 l
0 -68.74 l
o
2.25 setlinewidth
[] 0 setdash
0 setlinecap
np
353.58 66.67 m
32.80 0 l
o
0.75 setlinewidth
[ 2.25 3.75] 0 setdash
1 setlinecap
np
369.98 66.67 m
0 0 l
o
np
369.98 101.04 m
0 -17.19 l
o
0.75 setlinewidth
[] 0 setdash
np
361.78 66.67 m
16.40 0 l
o
np
361.78 101.04 m
16.40 0 l
o
np
353.58 66.67 m
32.80 0 l
0 17.18 l
-32.80 0 l
0 -17.18 l
o
0.4980 0.4980 0.4980 srgb
369.98 118.22 2.70 c p1
369.98 118.22 2.70 c p1
369.98 118.22 2.70 c p1
369.98 118.22 2.70 c p1
369.98 118.22 2.70 c p1
369.98 118.22 2.70 c p1
369.98 118.22 2.70 c p1
369.98 186.96 2.70 c p1
369.98 118.22 2.70 c p1
369.98 118.22 2.70 c p1
369.98 135.41 2.70 c p1
369.98 118.22 2.70 c p1
369.98 135.41 2.70 c p1
369.98 118.22 2.70 c p1
369.98 118.22 2.70 c p1
369.98 118.22 2.70 c p1
369.98 118.22 2.70 c p1
369.98 135.41 2.70 c p1
369.98 118.22 2.70 c p1
369.98 118.22 2.70 c p1
369.98 118.22 2.70 c p1
369.98 152.59 2.70 c p1
369.98 118.22 2.70 c p1
369.98 118.22 2.70 c p1
369.98 118.22 2.70 c p1
369.98 118.22 2.70 c p1
369.98 118.22 2.70 c p1
369.98 135.41 2.70 c p1
369.98 118.22 2.70 c p1
369.98 135.41 2.70 c p1
369.98 118.22 2.70 c p1
0 0 0 srgb
2.25 setlinewidth
[] 0 setdash
0 setlinecap
np
394.58 66.67 m
32.80 0 l
o
0.75 setlinewidth
[ 2.25 3.75] 0 setdash
1 setlinecap
np
410.98 66.67 m
0 0 l
o
np
410.98 101.04 m
0 -17.19 l
o
0.75 setlinewidth
[] 0 setdash
np
402.78 66.67 m
16.40 0 l
o
np
402.78 101.04 m
16.40 0 l
o
np
394.58 66.67 m
32.80 0 l
0 17.18 l
-32.80 0 l
0 -17.18 l
o
0.4980 0.4980 0.4980 srgb
410.98 169.78 2.70 c p1
410.98 118.22 2.70 c p1
410.98 152.59 2.70 c p1
410.98 118.22 2.70 c p1
410.98 118.22 2.70 c p1
410.98 118.22 2.70 c p1
410.98 118.22 2.70 c p1
410.98 118.22 2.70 c p1
410.98 152.59 2.70 c p1
410.98 118.22 2.70 c p1
410.98 152.59 2.70 c p1
410.98 135.41 2.70 c p1
410.98 152.59 2.70 c p1
410.98 169.78 2.70 c p1
410.98 135.41 2.70 c p1
410.98 118.22 2.70 c p1
410.98 152.59 2.70 c p1
410.98 152.59 2.70 c p1
410.98 135.41 2.70 c p1
0 0 0 srgb
2.25 setlinewidth
[] 0 setdash
0 setlinecap
np
435.58 118.22 m
32.80 0 l
o
0.75 setlinewidth
[ 2.25 3.75] 0 setdash
1 setlinecap
np
451.98 66.67 m
0 34.37 l
o
np
451.98 186.96 m
0 -51.55 l
o
0.75 setlinewidth
[] 0 setdash
np
443.78 66.67 m
16.40 0 l
o
np
443.78 186.96 m
16.40 0 l
o
np
435.58 101.04 m
32.80 0 l
0 34.37 l
-32.80 0 l
0 -34.37 l
o
0.00 0.00 491.76 288.00 cl
0 0 0 srgb
0.75 setlinewidth
[] 0 setdash
1 setlinecap
1 setlinejoin
10.00 setmiterlimit
np
46.08 66.67 m
0 137.48 l
o
np
46.08 66.67 m
-7.20 0 l
o
np
46.08 101.04 m
-7.20 0 l
o
np
46.08 135.41 m
-7.20 0 l
o
np
46.08 169.78 m
-7.20 0 l
o
np
46.08 204.15 m
-7.20 0 l
o
/Font1 findfont 8 s
31.68 63.80 (0) 1 0 t
31.68 98.17 (2) 1 0 t
31.68 132.54 (4) 1 0 t
31.68 166.91 (6) 1 0 t
31.68 201.28 (8) 1 0 t
0.00 0.00 491.76 288.00 cl
46.08 60.48 488.88 227.52 cl
/bg { 1 0 0 srgb } def
np
 80.28 69.64 m
2.70 2.70 l
2.70 -2.70 l
-2.70 -2.70 l
cp p2
np
 121.28 83.11 m
2.70 2.70 l
2.70 -2.70 l
-2.70 -2.70 l
cp p2
np
 162.28 78.77 m
2.70 2.70 l
2.70 -2.70 l
-2.70 -2.70 l
cp p2
np
 203.28 69.91 m
2.70 2.70 l
2.70 -2.70 l
-2.70 -2.70 l
cp p2
np
 244.28 114.89 m
2.70 2.70 l
2.70 -2.70 l
-2.70 -2.70 l
cp p2
np
 285.28 118.84 m
2.70 2.70 l
2.70 -2.70 l
-2.70 -2.70 l
cp p2
np
 326.28 108.17 m
2.70 2.70 l
2.70 -2.70 l
-2.70 -2.70 l
cp p2
np
 367.28 74.83 m
2.70 2.70 l
2.70 -2.70 l
-2.70 -2.70 l
cp p2
np
 408.28 74.23 m
2.70 2.70 l
2.70 -2.70 l
-2.70 -2.70 l
cp p2
np
 449.28 120.53 m
2.70 2.70 l
2.70 -2.70 l
-2.70 -2.70 l
cp p2
0.00 0.00 491.76 288.00 cl
/Font3 findfont 8 s
0 0 0 srgb
258.15 201.70 (n) 0 0 t
/Font1 findfont 8 s
263.24 201.70 ( = 9) 0 0 t
28.80 144.00 (Overlap) .5 90 t
0.00 0.00 491.76 288.00 cl
/Font1 findfont 8 s
0 0 0 srgb
85.42 54.78 (BeFree) 1 60.00 t
126.46 54.75 (CTD) 1 60.00 t
155.24 33.58 (GW) 60.00 ta
-0.296 (AS) tb gr
208.46 54.75 (GofLof) 1 60.00 t
249.46 54.75 (MGD) 1 60.00 t
290.46 54.75 (OMIM) 1 60.00 t
330.82 55.12 (Orphanet) 1 60.00 t
372.46 54.75 (RGD) 1 60.00 t
412.81 55.13 (SemRep) 1 60.00 t
454.42 54.78 (UniProt) 1 60.00 t
0.00 0.00 491.76 288.00 cl
/Font1 findfont 8 s
0 0 0 srgb
267.48 20.16 (Source) .5 0 t
ep
%%Trailer
%%Pages: 1
%%EOF
