%!PS-Adobe-3.0 EPSF-3.0
%%DocumentNeededResources: font ArialMT
%%+ font Arial-BoldMT
%%+ font Arial-ItalicMT
%%+ font Arial-BoldItalicMT
%%+ font Symbol
%%Title: R Graphics Output
%%Creator: R Software
%%Pages: (atend)
%%BoundingBox: 0 0 492 432
%%EndComments
%%BeginProlog
/bp  { gs sRGB gs } def
% begin .ps.prolog
/gs  { gsave } bind def
/gr  { grestore } bind def
/ep  { showpage gr gr } bind def
/m   { moveto } bind def
/l  { rlineto } bind def
/np  { newpath } bind def
/cp  { closepath } bind def
/f   { fill } bind def
/o   { stroke } bind def
/c   { newpath 0 360 arc } bind def
/r   { 4 2 roll moveto 1 copy 3 -1 roll exch 0 exch rlineto 0 rlineto -1 mul 0 exch rlineto closepath } bind def
/p1  { stroke } bind def
/p2  { gsave bg fill grestore newpath } bind def
/p3  { gsave bg fill grestore stroke } bind def
/p6  { gsave bg eofill grestore newpath } bind def
/p7  { gsave bg eofill grestore stroke } bind def
/t   { 5 -2 roll moveto gsave rotate
       1 index stringwidth pop
       mul neg 0 rmoveto show grestore } bind def
/ta  { 4 -2 roll moveto gsave rotate show } bind def
/tb  { 2 -1 roll 0 rmoveto show } bind def
/cl  { grestore gsave newpath 3 index 3 index moveto 1 index
       4 -1 roll lineto  exch 1 index lineto lineto
       closepath clip newpath } bind def
/rgb { setrgbcolor } bind def
/s   { scalefont setfont } bind def
% end   .ps.prolog
/sRGB { [ /CIEBasedABC
          << /DecodeLMN
               [ { dup 0.03928 le
                        {12.92321 div}
                        {0.055 add 1.055 div 2.4 exp }
                     ifelse
                 } bind dup dup
               ]
             /MatrixLMN [0.412457 0.212673 0.019334
                         0.357576 0.715152 0.119192
                         0.180437 0.072175 0.950301]
             /WhitePoint [0.9505 1.0 1.0890]
           >>
         ] setcolorspace } bind def
/srgb { setcolor } bind def
%%IncludeResource: font ArialMT
/ArialMT findfont
dup length dict begin
  {1 index /FID ne {def} {pop pop} ifelse} forall
  /Encoding ISOLatin1Encoding def
  currentdict
  end
/Font1 exch definefont pop
%%IncludeResource: font Arial-BoldMT
/Arial-BoldMT findfont
dup length dict begin
  {1 index /FID ne {def} {pop pop} ifelse} forall
  /Encoding ISOLatin1Encoding def
  currentdict
  end
/Font2 exch definefont pop
%%IncludeResource: font Arial-ItalicMT
/Arial-ItalicMT findfont
dup length dict begin
  {1 index /FID ne {def} {pop pop} ifelse} forall
  /Encoding ISOLatin1Encoding def
  currentdict
  end
/Font3 exch definefont pop
%%IncludeResource: font Arial-BoldItalicMT
/Arial-BoldItalicMT findfont
dup length dict begin
  {1 index /FID ne {def} {pop pop} ifelse} forall
  /Encoding ISOLatin1Encoding def
  currentdict
  end
/Font4 exch definefont pop
%%IncludeResource: font Symbol
/Symbol findfont
dup length dict begin
  {1 index /FID ne {def} {pop pop} ifelse} forall
  currentdict
  end
/Font5 exch definefont pop
%%EndProlog
%%Page: 1 1
bp
74.88 74.88 388.08 426.24 cl
1 0 0 srgb
0.75 setlinewidth
[] 0 setdash
1 setlinecap
1 setlinejoin
10.00 setmiterlimit
np
376.48 413.23 m
-83.84 -99.53 l
-49.02 -129.25 l
-34.82 -62.39 l
-26.96 -29.71 l
-22.06 -4.46 l
-18.66 0 l
-16.13 1.49 l
-14.27 0 l
-12.72 0 l
-11.52 0 l
o
376.48 413.23 2.29 c p1
292.64 313.70 2.29 c p1
243.62 184.45 2.29 c p1
208.80 122.06 2.29 c p1
181.84 92.35 2.29 c p1
159.78 87.89 2.29 c p1
141.12 87.89 2.29 c p1
124.99 89.38 2.29 c p1
110.72 89.38 2.29 c p1
98.00 89.38 2.29 c p1
86.48 89.38 2.29 c p1
0.00 0.00 491.76 432.00 cl
74.88 74.88 388.08 426.24 cl
0 0 1 srgb
0.75 setlinewidth
[] 0 setdash
1 setlinecap
1 setlinejoin
10.00 setmiterlimit
np
376.48 413.23 m
-83.84 -325.34 l
-49.02 58.47 l
-34.82 55.03 l
-26.96 35.88 l
-22.06 18.00 l
-18.66 11.65 l
-16.13 6.46 l
-14.27 2.55 l
-12.72 0.66 l
-11.52 0.24 l
o
376.48 413.23 2.29 c p1
292.64 87.89 2.29 c p1
243.62 146.36 2.29 c p1
208.80 201.39 2.29 c p1
181.84 237.27 2.29 c p1
159.78 255.27 2.29 c p1
141.12 266.92 2.29 c p1
124.99 273.38 2.29 c p1
110.72 275.93 2.29 c p1
98.00 276.59 2.29 c p1
86.48 276.83 2.29 c p1
0.00 0.00 491.76 432.00 cl
0.00 0.00 491.76 432.00 cl
0 0 1 srgb
0.75 setlinewidth
[] 0 setdash
1 setlinecap
1 setlinejoin
10.00 setmiterlimit
np
388.08 87.89 m
0 325.34 l
o
np
388.08 87.89 m
7.20 0 l
o
np
388.08 169.23 m
7.20 0 l
o
np
388.08 250.56 m
7.20 0 l
o
np
388.08 331.89 m
7.20 0 l
o
np
388.08 413.23 m
7.20 0 l
o
/Font1 findfont 10 s
402.48 84.31 (133923) 0 0 t
402.48 165.65 (139324) 0 0 t
402.48 246.98 (144726) 0 0 t
402.48 328.31 (150127) 0 0 t
402.48 409.65 (155528) 0 0 t
457.20 250.56 (Mean pruned SE rank) .5 90 t
1 0 0 srgb
np
74.88 87.89 m
0 325.34 l
o
np
74.88 87.89 m
-7.20 0 l
o
np
74.88 169.23 m
-7.20 0 l
o
np
74.88 250.56 m
-7.20 0 l
o
np
74.88 331.89 m
-7.20 0 l
o
np
74.88 413.23 m
-7.20 0 l
o
60.48 84.31 (0.0275) 1 0 t
60.48 165.65 (0.0330) 1 0 t
60.48 246.98 (0.0384) 1 0 t
60.48 328.31 (0.0439) 1 0 t
60.48 409.65 (0.0494) 1 0 t
14.40 250.56 (F Measure) .5 90 t
0 0 0 srgb
np
86.48 74.88 m
290.00 0 l
o
np
86.48 74.88 m
0 -7.20 l
o
np
98.00 74.88 m
0 -7.20 l
o
np
110.72 74.88 m
0 -7.20 l
o
np
124.99 74.88 m
0 -7.20 l
o
np
141.12 74.88 m
0 -7.20 l
o
np
159.78 74.88 m
0 -7.20 l
o
np
181.84 74.88 m
0 -7.20 l
o
np
208.80 74.88 m
0 -7.20 l
o
np
243.62 74.88 m
0 -7.20 l
o
np
292.64 74.88 m
0 -7.20 l
o
np
376.48 74.88 m
0 -7.20 l
o
231.48 20.16 (Sim Threshold) .5 0 t
380.06 60.48 (1) 1 90 t
296.22 60.48 (0.7686) 1 90 t
247.20 60.48 (0.6333) 1 90 t
212.38 60.48 (0.5372) 1 90 t
185.42 60.48 (0.4628) 1 90 t
163.36 60.48 (0.4019) 1 90 t
144.70 60.48 (0.3504) 1 90 t
128.57 60.48 (0.3059) 1 90 t
114.30 60.48 (0.2665) 1 90 t
101.58 60.48 (0.2314) 1 90 t
90.06 60.48 (0.1996) 1 90 t
ep
%%Trailer
%%Pages: 1
%%EOF
