AGA	C538402
AGA	D054880
MANBA	D044905
TSEN54	C536716
VWF	D056725
RARS2	C548074
CTNS	D003554
ASAH1	D055577
ASAH1	C537075
FUCA1	D005645
PYGM	C537276
PYGM	D006012
VWF	D056729
COL11A2	C537494
PIGA	D006457
GNPTAB	C538602
HCN4	D012804
SCN5A	D012804
MYH6	D012804
STS	D016114
GUSB	D016538
FXN	D005621
TGFB1	D003550
DCTN4	D003550
CFTR	D003550
CLCA4	D003550
STX1A	D003550
MT-ND6	D017241
MT-TQ	D017241
MT-ND4	D017241
MT-ND5	D017241
MT-CO1	D017241
MT-TL1	D017241
MT-TW	D017241
MT-ND1	D017241
MT-TS1	D017241
MT-TS2	D017241
MT-TH	D017241
MT-CO2	D017241
MT-CO3	D017241
MT-TF	D017241
RRM2B	D007625
MT-TL1	D007625
MT-ATP8	D007625
MT-TQ	D017243
MT-TP	D017243
MT-ND5	D017243
MT-RNR1	D017243
MT-TS1	D017243
MT-TS2	D017243
MT-TL1	D017243
MT-TH	D017243
MT-TF	D017243
MT-TK	D017243
SCN4A	C538616
DMPK	C538008
GLA	D000795
MECP2	D015518
OCA2	D017204
CYFIP1	D017204
SNRPN	D017204
UBE3A	D017204
ATP10A	D017204
GABRA1	D020190
JRK	D020190
CACNB4	D020190
EFHC1	D020190
KCNQ3	D020190
GABRD	D020190
CLCN2	D020190
EFHC1	C535495
VHL	D006623
PKHD1	D017044
CHD7	D058747
SEMA3E	D058747
PON3	D000690
VCP	D000690
DCTN1	D000690
PON2	D000690
PON1	D000690
TREM2	D000690
C9ORF72	D000690
ATXN2	D000690
ERBB4	D000690
HNRNPA1	D000690
NEFH	D000690
PPARGC1A	D000690
PRPH	D000690
UBQLN2	D000690
UNC13A	D000690
FUS	D000690
CHCHD10	D000690
SOD1	D000690
FIG4	D000690
DAO	D000690
VAPB	D000690
CHMP2B	D000690
ANG	D000690
MATR3	D000690
TARDBP	D000690
PFN1	D000690
SQSTM1	D000690
OPTN	D000690
ATM	D001260
HTT	D006816
SLC2A3	D006816
EPM2A	D020192
NHLRC1	D020192
TBX1	D058165
UFD1L	D058165
HIRA	D058165
ARVCF	D058165
GP1BB	D058165
COMT	D058165
HBB	D000755
OCRL	D009800
CDKN1A	D018761
CDKN2B	D018761
CDKN1B	D018761
CDKN2C	D018761
MEN1	D018761
FMR1	D005600
BTK	C537409
ATP7B	D006527
WIPF1	D014923
WAS	D014923
CLIP2	D018980
TBL2	D018980
WBSCR16	D018980
RFC2	D018980
ELN	D018980
LIMK1	D018980
GTF2IRD1	D018980
BAZ1B	D018980
GTF2I	D018980
LETM1	C536740
LETM1	D054877
WHSC1	C536740
WHSC1	D054877
NELFA	C536740
NELFA	D054877
FGFR3	D000130
TTPA	C535393
OTC	D020163
NDP	C537849
NCF1	D006105
NCF2	D006105
NCF4	D006105
CYBB	D006105
CYBA	D006105
OPN1MW	C536238
OPN1MW	C538165
OPN1LW	C536238
OPN1LW	C538165
TFE3	D018234
ASPSCR1	D018234
NF2	D009464
NF2	D016518
EDA	D053358
EDA2R	D053358
ACVR1	D009221
NRAS	D009634
RIT1	D009634
KAT6B	D009634
RASA2	D009634
PTPN11	D009634
BRAF	D009634
KRAS	D009634
A2ML1	D009634
SOS1	D009634
RAF1	D009634
SEMA5A	D003410
SEMA5A	C538482
CTNND2	D003410
CTNND2	C538482
HPRT1	D007926
CHEK2	D016864
MDM2	D016864
TP53	D016864
SERPINA1	D019896
SERPINA1	C531610
SNAI2	C536463
MITF	C536463
SOX10	C536463
SALL1	C536974
SCN4A	C535409
SCN4A	D020513
KCNE3	D020514
SCN4A	D020514
CACNA1S	D020514
EYA1	D019280
SIX5	D019280
SIX1	D019280
STK11	D010580
BDNF	C538295
BDNF	D017624
WT1	C538295
WT1	D017624
PAX6	C538295
PAX6	D017624
PEX16	D015211
PEX19	D015211
PEX11B	D015211
PEX2	D015211
PEX10	D015211
PEX1	D015211
PEX12	D015211
PEX13	D015211
PEX14	D015211
PEX26	D015211
PEX3	D015211
PEX6	D015211
PEX5	D015211
MTTP	D000012
LYST	D002609
KLLN	D006223
PIK3CA	D006223
PTEN	D006223
AKT1	D006223
SDHC	D006223
SDHD	D006223
SDHB	D006223
RPS6KA3	D038921
SH2D1A	D008232
XIAP	D008232
GNAS	D005359
DYNC2H1	C537571
IFT140	C537571
WDR60	C537571
TTC21B	C537571
IFT172	C537571
WDR19	C537571
IFT80	C537571
WDR34	C537571
EVC2	D004613
EVC	D004613
DDX3Y	C536297
RBMY1A1	C536297
USP9Y	C536297
DAZ4	C536297
DAZ3	C536297
DAZ2	C536297
DAZ1	C536297
TSPY1	C536297
FGFR2	D000168
TGM1	D017490
NIPAL4	D017490
LIPN	D017490
ALOX12B	D017490
ABCA12	D017490
CYP4F22	D017490
SCARB2	D020194
CSTB	D020194
PRICKLE1	D020194
NIPBL	D003635
RAD21	D003635
SMC1A	D003635
SMC3	D003635
HDAC8	D003635
HLA-DQA1	C536011
HLA-DQB1	C536011
ATP2A2	D007644
LMNA	C535852
SMARCE1	C536436
SMARCB1	C536436
SOX11	C536436
ARID1A	C536436
ARID1B	C536436
SMARCA4	C536436
PEX7	D012035
PHYH	D012035
MAMLD1	C538647
MTM1	C538647
COL6A2	C535436
COL6A1	C535436
COL12A1	C535436
COL6A3	C535436
IKBKG	D007184
PEX16	D018901
PEX19	D018901
PEX11B	D018901
PEX2	D018901
PEX10	D018901
PEX1	D018901
PEX12	D018901
PEX13	D018901
PEX14	D018901
PEX26	D018901
PEX3	D018901
PEX6	D018901
PEX5	D018901
HGD	C537862
HGD	D000474
AIP	D000172
MVK	D054078
SF3B4	C538184
UMPS	C537136
LMX1B	D009261
IVD	C538167
RAI1	D058496
FLII	D058496
RUNX2	D002973
VPS13B	C536438
TRAF3IP2	D002178
STAT1	D002178
CLEC7A	D002178
CARD9	D002178
IL17F	D002178
IL17RA	D002178
AGK	C538280
SLC25A4	C538280
RPL5	D029503
RPS7	D029503
RPL11	D029503
RPL35A	D029503
GATA1	D029503
RPS26	D029503
RPS17	D029503
RPS28	D029503
RPS19	D029503
RPS29	D029503
TSR2	D029503
RPL26	D029503
RPL15	D029503
RPS10	D029503
RPS24	D029503
STAC3	C538343
BLM	D001816
ARG1	D020162
CTC1	D019871
RTEL1	D019871
TERT	D019871
DKC1	D019871
TERC	D019871
TINF2	D019871
NHP2	D019871
USB1	D019871
NOP10	D019871
WRAP53	D019871
IKBKAP	D004402
NSUN2	C535718
LIG4	C535718
DYM	C535726
ASL	D056807
AMPD1	C538234
AMPD3	C538234
QDPR	C537896
SLC12A6	C536446
GJA1	D018636
NKX2-5	D018636
GATA6	C538080
ZFPM2	C538080
SLC6A19	D006250
HPD	C535845
CTSA	C536411
MYH3	C535483
ADAMTSL4	C536184
ADAMTSL4	D004479
FBN1	C536184
FBN1	D004479
ALK	D009447
ALK	C536408
TOP2A	D009447
TOP2A	C536408
LIN28B	D009447
LIN28B	C536408
MYCN	D009447
MYCN	C536408
HACE1	D009447
HACE1	C536408
PHOX2B	D009447
PHOX2B	C536408
TRPV4	C537356
CNBP	D020967
KCNJ10	C536648
FOXI1	C536648
SLC26A4	C536648
CA2	C536058
INPPL1	C537122
ACOX1	C536662
CHRM3	C536477
CHRM3	D011535
PTEN	D016715
AKT1	D016715
HRAS	D056685
CTSK	D058631
ALDOB	D005633
EXT1	C536555
EXT1	D015826
TRPS1	C536555
TRPS1	D015826
L1CAM	C536029
COL11A1	C536025
MSH6	D055653
MSH2	D055653
MLH1	D055653
GPR143	C537863
FANCI	D005199
FANCM	D005199
FANCL	D005199
FANCA	D005199
FANCC	D005199
FANCB	D005199
BRCA2	D005199
FANCE	D005199
PALB2	D005199
FANCG	D005199
FANCF	D005199
BRIP1	D005199
RAD51C	D005199
SLX4	D005199
ERCC4	D005199
FANCD2	D005199
ALDH3A2	D016111
SETD2	D058495
NFIX	D058495
NSD1	D058495
GNAQ	D013341
HOXD13	C536495
HOXD13	C536534
CYP27A1	D019294
NSD1	C536687
EZH2	C536687
IL10	D001528
C4A	D001528
IL23R	D001528
HLA-B	D001528
STAT4	D001528
NOD2	D001528
MEFV	D001528
TLR4	D001528
IL12RB2	D001528
UBAC2	D001528
RYR1	D008305
CACNA1S	D008305
RET	D006627
EDNRB	D006627
EDN3	D006627
GDNF	D006627
ECE1	D006627
NRTN	D006627
PABPN1	D039141
TSC2	D014402
TSC1	D014402
GUCA1B	D012174
SLC7A14	D012174
NRL	D012174
NR2E3	D012174
RLBP1	D012174
RPGR	D012174
BEST1	D012174
CA4	D012174
CNGA1	D012174
IDH3B	D012174
LRAT	D012174
NEK2	D012174
EYS	D012174
OFD1	D012174
ROM1	D012174
TOPORS	D012174
DHDDS	D012174
PRPF4	D012174
RP1	D012174
PRPF6	D012174
FAM161A	D012174
RP2	D012174
RBP3	D012174
PRPF3	D012174
CDHR1	D012174
MAK	D012174
SAG	D012174
RP9	D012174
ZNF513	D012174
FSCN2	D012174
RGR	D012174
SNRNP200	D012174
KIZ	D012174
CLRN1	D012174
CNGB1	D012174
CERKL	D012174
CRB1	D012174
ARL6	D012174
PRCD	D012174
CRX	D012174
TULP1	D012174
PRPF8	D012174
SPATA7	D012174
RDH12	D012174
RHO	D012174
PDE6B	D012174
PDE6A	D012174
PROM1	D012174
IMPG2	D012174
TUB	D012174
SEMA4A	D012174
C8ORF37	D012174
PDE6G	D012174
ABCA4	D012174
MERTK	D012174
USH2A	D012174
RPE65	D012174
TTC8	D012174
ARL2BP	D012174
PRPH2	D012174
IMPDH1	D012174
KLHL7	D012174
PRPF31	D012174
C2ORF71	D012174
CACNA1A	C536589
ATP1A3	C536589
SLC1A3	C536589
ATP1A2	C536589
PAX6	C537022
ADSL	C538235
GNE	C537332
ABCG8	C537345
ABCG5	C537345
HLA-DPB1	D014890
CTLA4	D014890
PRTN3	D014890
PTPN22	D014890
DPCR1	C536174
MUC5B	C536174
BTNL2	D012507
HLA-DRB1	D012507
JAG1	D013771
NKX2-6	D013771
CITED2	D013771
GJA5	D013771
GATA6	D013771
GDF1	D013771
GATA5	D013771
GATA4	D013771
ZFPM2	D013771
NKX2-5	D013771
SACS	C536787
ABCC2	D007566
HLA-B	D013625
MLX	D013625
IL12B	D013625
NTRK3	D018201
ETV6	D018201
WFS1	D014929
CISD2	D014929
PRNP	D016098
PRNP	D034062
GP9	D001606
GP1BB	D001606
GP1BA	D001606
TF	C538259
DPYD	D054067
SARDH	C537236
PTS	C535325
GPR35	C536419
MST1	C536419
TCF4	C536419
EIF2AK4	C535861
ALDH7A1	C536254
MAPK10	C535500
CHD2	C535500
SCN1A	C535500
PTPN22	D013700
JAK2	D006502
F5	D006502
H19	D009396
WT1	D009396
POU6F2	D009396
DIS3L2	D009396
SLC11A1	D014376
CARD14	D010916
NDE1	D006832
CENPJ	C537533
CEP152	C537533
RBBP8	C537533
PCNT	C537533
ATRIP	C537533
ATR	C537533
GAN	D056768
SOX9	D055036
NHS	C538336
MAP2K2	C537393
MAP2K2	D009456
NF1	C537393
NF1	D009456
SCNN1G	D056929
SCNN1B	D056929
SLC24A1	C536122
CABP4	C536122
CACNA2D4	C536122
CACNA1F	C536122
NYX	C536122
GRK1	C536122
TRPM1	C536122
GRM6	C536122
LRIT3	C536122
RHO	C536122
SAG	C536122
PDE6B	C536122
GNAT1	C536122
GPR179	C536122
MEFV	D010505
CHM	D015794
RPE65	D015794
GPC3	C537340
GPC4	C537340
MSR1	C537243
RNASEL	C537243
SRD5A2	C537243
CHEK2	C537243
ELAC2	C537243
HNF1B	C537243
BRCA1	C537243
NBN	C537243
BRCA2	C537243
EPHB2	C537243
HOXB13	C537243
MSMB	C537243
TBX5	C535326
NR5A1	D023961
PSMC3IP	D023961
FSHR	D023961
BMP15	D023961
NOTCH3	D046589
CFTR	C535984
SH3BP2	D002636
SAR1B	C535460
KCNQ2	D020936
KCNQ2	C535466
KCNQ3	D020936
KCNQ3	C535466
ESCO2	C535687
WRN	D014898
GRHL3	C536528
IRF6	C536528
PTPN11	D044542
PTPN11	C537116
BRAF	D044542
BRAF	C537116
RAF1	D044542
RAF1	C537116
CHN1	D004370
SHOX	C537119
MESP2	C537565
MESP2	C535781
LFNG	C537565
LFNG	C535781
HES7	C537565
HES7	C535781
DLL3	C537565
DLL3	C535781
SLC12A3	D053579
CLCNKB	D053579
GRIP1	D058497
FRAS1	D058497
FREM2	D058497
TAZ	D056889
HLA-DPB1	D001607
MNX1	C536221
GNAQ	D019339
LHCGR	C536961
KIAA0196	C535313
CCDC22	C535313
GMPPA	C536008
GMPPA	C536009
AAAS	C536008
AAAS	C536009
TBX22	C535559
PRKAR1A	C538179
PDE4D	C538179
NOTCH2	D031845
NOTCH2	C535663
NOTCH2	C531695
EVC2	C536695
EVC	C536695
RAI1	C536578
MECP2	C537723
PUS1	C536101
YARS2	C536101
PTH1R	D020254
TP63	C535289
CEP57	C536987
BUB1B	C536987
BUB3	C536987
BUB1	C536987
MMP13	C537351
MMP9	C537351
FGFR2	C537780
IFIH1	C535607
RNASEH2C	C535607
RNASEH2B	C535607
RNASEH2A	C535607
TREX1	C535607
ADAR	C535607
SAMHD1	C535607
TP63	C538052
NPR2	C535661
FBN1	C535662
DOCK6	C538225
ARHGAP31	C538225
NOTCH1	C538225
EOGT	C538225
RBPJ	C538225
ABCC9	C535655
FAM20A	C538241
ALMS1	D056769
HR	C537055
HDAC4	C538317
SLC16A2	C537047
PHF6	C536575
FLNB	C536573
C12ORF65	C537669
FBN2	C536211
EMG1	C537081
SPRED1	C548032
MT-CYB	C535584
COL2A1	C535766
UBA1	C535380
WISP3	C535387
OPA1	C535351
WFS1	C535351
MFN2	C535351
RECQL4	C536788
FOXE1	C537901
EDN1	C538270
PLCB4	C538270
GNAI3	C538270
C10ORF2	C535523
PRPS1	C535388
FLNB	C535396
NDP	D058456
LBR	C537299
SLC4A11	C535473
GLE1	C537194
NOG	C536943
COL10A1	C537352
CANT1	C535943
XYLT1	C535943
FTL	C538137
IMPAD1	C535347
CRYGC	C538287
CRYGD	C538287
MAF	C538287
CRYBB1	C538287
CRYBB2	C538287
CRYBA4	C538287
GJA8	C538287
CRYAA	C538287
TGFB1	D003966
MAP2K1	C535579
MAP2K2	C535579
BRAF	C535579
KRAS	C535579
AMHR2	C536665
AMH	C536665
ATP8A2	C535731
WDR81	C535731
VLDLR	C535731
CA8	C535731
C12ORF57	C536959
POLG	D002549
SLC40A1	C537249
EIF2AK3	C536739
CLCF1	C536214
CRLF1	C536214
FGFR2	C537559
IFT140	C535463
IFT172	C535463
GAMT	C537622
PEPD	D056732
COL18A1	C537209
ROR2	C535863
KCNJ8	C535572
ABCC9	C535572
EFNB1	C536456
PAX3	C536453
ELOVL4	C535738
ELOVL4	C535514
SCN9A	D004916
EPHX1	C537922
TWIST2	C536385
SMARCAL1	C536629
SOX9	D050090
SRY	D050090
LRP2	C536390
PIEZO2	C537288
PORCN	D005489
GLI3	C537300
FTL	C548080
GORAB	C537799
PYCR1	C537799
FLNA	C538064
ANTXR2	D057770
SRCAP	C537062
KCTD1	C536623
DSP	C535493
JUP	C535493
PKP1	C536183
SAT1	C536159
MBTPS2	C536159
CTSC	C537627
RET	D018814
RET	D018813
COL2A1	C537207
ANKRD11	C537015
ALS2	C536416
ERLIN2	C536416
KMT2D	C537705
KDM6A	C537705
PLCD1	C535889
LMBR1	C535689
IDH1	D004687
IDH2	D004687
PTH1R	D004687
HADHA	C537957
MKKS	C538159
NFIX	C536026
SKI	C537328
FBN1	C537328
PIEZO2	C535910
HYLS1	C536079
KIF7	C536079
GJB2	C536152
MT-TS1	C536152
GLI3	D054975
KRT2	D053560
MBTPS2	C536085
UBR1	C535880
KRT17	D053549
KRT16	D053549
KRT6B	D053549
KRT6A	D053549
SHH	C537342
PSAT1	C536405
PHGDH	C536405
LAMB2	C537185
VPS33B	C535382
VIPAS39	C535382
BCOR	C537735
BCOR	C537465
HPSE2	C536480
LRIG2	C536480
UBE3B	C537013
WNT10A	C537742
TYROBP	C536329
TREM2	C536329
LRP5	C536063
LEMD3	C537415
LRP5	C536056
AMER1	C536053
TP53	D020288
CTSC	D010214
COL3A1	C538187
MMP13	C537353
DPP6	C537323
TSEN34	C548070
SEPSECS	C548070
TSEN2	C548070
TSEN54	C548070
KIF11	C537711
ORC4	C538012
CDT1	C538012
ORC6	C538012
ORC1	C538012
CDC6	C538012
ACTA2	D009072
ACTA2	C536991
RNF213	D009072
RNF213	C536991
TRIM37	C538604
TRIM37	D050336
PRKAR1A	D056733
ADAMTSL2	C537677
FBN1	C537677
SHOX	C537267
TRPV4	C537172
FGFR1	C536050
PTDSS1	C537115
RECQL4	C535288
INSR	D056731
TBX3	C536937
SLC35D1	C536637
EIF4A3	C535677
BEST1	C536352
RBM10	C536942
KIT	D016116
SNAI2	D016116
HRAS	C537893
WNT7A	C538189
TGFB2	C537884
FOXC1	C537884
CYP1B1	C537884
PAX6	C537884
PITX2	C537884
HDAC9	C537884
SPG11	C538335
SPG11	C537483
ATP6V0A2	C536750
COMP	C535819
RET	C536482
ITGA8	C536482
FGF20	C536482
SHH	C536563
LMBR1	C536563
LMNA	D011371
ZMPSTE24	D011371
HOXA13	C538278
PRKCSH	C536330
LRP5	C536330
SEC63	C536330
TCF4	C537403
RTEL1	C536068
TERT	C536068
DKC1	C536068
TINF2	C536068
DLX3	C536549
FIG4	C536719
MPL	C535982
MMP14	C536051
MMP2	C536051
DCAF17	C536742
ZSWIM6	C535657
AIRE	C538275
LTBP2	D056846
ADAMTS10	D056846
FBN1	D056846
ZC4H2	C536703
COL2A1	C535799
ELN	D021921
NBN	D049932
NBN	C531759
LRP4	C537525
SOST	C537525
PIK3R1	C537327
INVS	C537580
IQCB1	C537580
NPHP1	C537580
CEP164	C537580
NPHP3	C537580
NPHP4	C537580
CEP290	C537580
SDCCAG8	C537580
SOX2	D025962
SOX3	D025962
PROKR2	D025962
HESX1	D025962
OTX2	D025962
FGFR1	D025962
ACP5	C535782
ABCA1	D052456
APOA1	D052456
WNT3	C536500
NOG	C536223
GDF5	C536223
PVRL1	C536726
HADHB	D024741
HADHA	D024741
MLYCD	C535702
APOE	D006952
KHK	C538068
CECR1	D018860
MCCC2	C535308
MCCC1	C535308
GHR	D046150
SEMA3A	D017436
CHD7	D017436
SPRY4	D017436
TACR3	D017436
IL17RD	D017436
SOX10	D017436
HS6ST1	D017436
DUSP6	D017436
WDR11	D017436
FGF17	D017436
PROKR2	D017436
FGF8	D017436
FLRT3	D017436
HESX1	D017436
KAL1	D017436
KISS1R	D017436
PROK2	D017436
NSMF	D017436
FEZF1	D017436
FGFR1	D017436
SPTA1	D013103
SPTA1	C536356
EPB42	D013103
EPB42	C536356
SLC4A1	D013103
SLC4A1	C536356
SPTB	D013103
SPTB	C536356
ANK1	D013103
ANK1	C536356
GPIHBP1	D008072
LMF1	D008072
LIFR	C537502
RD3	D057130
IQCB1	D057130
CRB1	D057130
GUCY2D	D057130
KCNJ13	D057130
CRX	D057130
LCA5	D057130
TULP1	D057130
GDF6	D057130
RPE65	D057130
SPATA7	D057130
RPGRIP1	D057130
RDH12	D057130
NMNAT1	D057130
IMPDH1	D057130
LRAT	D057130
AIPL1	D057130
CEP290	D057130
MLH1	D003123
MLH3	D003123
TGFBR2	D003123
MSH6	D003123
PIK3CA	D003123
MSH2	D003123
EPCAM	D003123
PMS2	D003123
KRAS	D003123
LRRFIP2	D003123
RPS20	D003123
PMS1	D003123
BMPR1A	D003123
BBS2	D020788
BBS1	D020788
MKKS	D020788
ARL6	D020788
BBIP1	D020788
LZTFL1	D020788
TTC8	D020788
BBS10	D020788
BBS12	D020788
NPHP1	D020788
MKS1	D020788
BBS9	D020788
IFT27	D020788
WDPCP	D020788
BBS7	D020788
BBS5	D020788
CEP290	D020788
TRIM32	D020788
BBS4	D020788
SDCCAG8	D020788
RARS2	C548069
EXOSC8	C548069
VRK1	C548069
EXOSC3	C548069
TSEN54	C548069
SCA30	C537206
PCCA	D056693
PCCB	D056693
WT1	D030321
GCDH	C536833
DHCR7	D019082
RMRP	C535916
ACADM	C536038
ABAT	C535407
EHHADH	C536663
HSD17B4	C536663
CR2	D017074
TNFRSF13B	D017074
CD81	D017074
CD19	D017074
LRBA	D017074
TNFSF12	D017074
PRKCD	D017074
TNFRSF13C	D017074
ICOS	D017074
MS4A1	D017074
NFKB2	D017074
CASP10	D056735
PRKCD	D056735
FAS	D056735
FASLG	D056735
FOXC1	C535679
PITX2	C535679
COL1A1	C536044
CRTAP	C536044
COL1A2	C536044
BMP1	C536044
CREB3L1	C536044
SERPINF1	C536044
SERPINH1	C536044
P3H1	C536044
PPIB	C536044
WNT1	C536044
COL1A1	C536045
CRTAP	C536045
COL1A2	C536045
SP7	C536045
PPIB	C536045
TMEM38B	C536045
WNT1	C536045
FKBP10	C536046
IFITM5	C536046
HLA-A	C537630
NKX2-6	D004310
ZIC3	D004310
GDF1	D004310
CFC1	D004310
HAL	C538320
AASS	C537218
AASS	D020167
PLAU	C536260
SLC1A1	C536171
OAT	C537132
GLYCTK	C535767
DCXR	C536652
CTH	C535408
TSC2	D018192
TSC1	D018192
FH	C538191
FLI1	C538617
TFR2	C537248
MYC	D002051
MYC	D008228
CHEK2	D012516
NTRK3	D005354
ETV6	D005354
NAB2	D006393
STAT6	D006393
ABCC6	D011561
TP53	D018268
AVPR2	D018500
AQP2	D018500
BCHE	C537417
SMAD4	C535837
CDKN2A	C535837
KRAS	C535837
BRCA1	C535837
BRCA2	C535837
TP53	C535837
PALB2	C535837
MANF	C535837
HBB	D006445
SPTA1	D004612
GYPC	D004612
EPB41	D004612
SPTB	D004612
P2RY11	D009290
MOG	D009290
TNFSF4	D009290
CTSH	D009290
HCRT	D009290
HLA-DRB1	D009290
HLA-DQB1	D009290
ZNF365	D009290
WT1	D052159
CFP	C537241
MPL	D013920
TET2	D013920
CALR	D013920
JAK2	D013920
TP53	D013920
SH2B3	D013920
GATA2	D015470
NPHS1	C535761
YWHAE	D054221
HIC1	D054221
PAFAH1B1	D054221
PEX16	D052919
PEX19	D052919
PEX11B	D052919
PEX2	D052919
PEX10	D052919
PEX1	D052919
PEX12	D052919
PEX13	D052919
PEX14	D052919
PEX26	D052919
PEX3	D052919
PEX6	D052919
PEX5	D052919
SOX3	D058531
SOX9	D058531
SRY	D058531
ELANE	C536227
T	D002817
EDAR	D053360
EDARADD	D053360
WNT10A	D053360
DSP	D054990
TERT	D054990
SFTPA2	D054990
TERC	D054990
DPP9	D054990
SFTPC	D054990
FAM13A	D054990
OBFC1	D054990
SFTPA1	D054990
ATP11A	D054990
MUC5B	D054990
ATP7A	C537860
FZD4	C536382
ZNF408	C536382
LRP5	C536382
NDP	C536382
TSPAN12	C536382
MT-TE	C536246
MT-TL1	C536246
MT-TK	C536246
LIPI	D006953
APOA5	D006953
HCN4	D053840
KCNE3	D053840
KCNJ8	D053840
KCND3	D053840
CACNA2D1	D053840
CACNA1C	D053840
CACNB2	D053840
SLMAP	D053840
SCN5A	D053840
GPD1L	D053840
SCN3B	D053840
SCN1B	D053840
TRPM4	D053840
ADA	C531816
CCND1	D009101
GPC1	D001656
HSD11B2	C537422
HSD11B2	D043204
DBH	C535600
BCL6	D008224
BCL2	D008224
IGH	D008224
HLA-DRB1	D008224
IFNG	C538494
TERT	C538494
TERC	C538494
PRF1	C538494
SBDS	C538494
MPL	D011087
TET2	D011087
JAK2	D011087
ACADS	C537596
TIA1	C536690
POMT2	D058494
B3GALNT2	D058494
FKRP	D058494
POMT1	D058494
POMGNT2	D058494
POMGNT1	D058494
COL4A1	D058494
LARGE	D058494
TMEM5	D058494
POMK	D058494
B3GNT1	D058494
ISPD	D058494
FKTN	D058494
TTN	C536815
GNE	C536816
TMC8	D004819
TMC6	D004819
BCS1L	C537633
VCAN	C536075
KRT71	C536745
LPAR6	C536745
LIPH	C536745
KRT74	C536745
STAT5B	D015473
NPM1	D015473
FIP1L1	D015473
NUMA1	D015473
PRKAR1A	D015473
TBL1XR1	D015473
ZBTB16	D015473
RARA	D015473
NABP1	D015473
PML	D015473
CYP19A1	C537436
HLA-DRB1	D010391
HLA-DQB1	D010391
CYLD	C536552
GFI1B	D055652
NBEAL2	D055652
PRKAR1A	C538262
GATA6	C536112
GATA4	C536112
CRELD1	C536112
NR2F2	C536112
HR	C535912
EPS8L3	C535912
KRT81	D056734
KRT86	D056734
DSG4	D056734
KRT83	D056734
ADAR	C535729
FLCN	D058249
CYLD	C536611
FERMT1	C536321
BMPR2	D011668
EIF2AK4	D011668
ABCA1	D013631
COL1A1	C538219
PDGFB	C538219
C10ORF2	C537583
POLG	C537583
CREB3L3	D006954
LPL	D006954
APOA5	D006954
GPIHBP1	D006954
PTPN3	D018281
PTPN3	D001650
HOXA1	C535397
ATP8B1	C535932
ABCB4	C535932
NR1H4	C535932
ABCB11	C535932
PSTPIP1	C536253
TP63	C535903
OPA3	C535311
ZFP90	C535311
ING3	C535575
PTEN	C535575
TNFRSF10B	C535575
ING1	C535575
ARL11	D015451
IGHG1	D015451
CCND1	D015451
IGHV3-21	D015451
POT1	D015451
ATM	D015451
TP53	D015451
OPA3	C537128
KIAA1279	C537279
CACNA1C	C536962
SLC19A3	C537658
KIAA1377	C538253
C5ORF42	C538253
EGR2	C538392
MPZ	C538392
PRX	C538392
PMP22	C538392
NTRK1	D000699
NGF	D000699
FSHR	D016471
IGHV4-34	D007943
BRAF	D007943
CTNNB1	D003397
BRAF	D003397
SLC26A2	C535395
EXT1	D002813
RPL21	C537160
LPAR6	C537160
LIPH	C537160
SNRPE	C537160
DSG4	C537160
APCDD1	C537160
HFE2	C537247
HAMP	C537247
GALK1	C535999
UGT1A1	C536212
UGT1A1	C536213
ACAD8	C535541
ALDH4A1	C538385
AMACR	C535444
SMPD1	D052537
SMPD1	D052536
LPIN2	C537839
GUCY2D	C535358
PRPH2	C535358
GRK1	C537743
SAG	C537743
B3GALT6	C536201
B4GALT7	C536201
ALAS2	C536761
INPP5E	C536984
LIPA	D015223
SGCE	C536096
TOR1A	C536096
DYT15	C536096
DRD2	C536096
CYP4V2	C535440
SLC6A19	C536285
SLC36A2	C536285
SLC6A18	C536285
SLC6A20	C536285
HLA-B	D013262
COL4A1	C531642
OPLAH	C535322
MYO5A	C536203
JUP	C538346
CHRNA1	C537378
CHRND	C537378
CHRNG	C537378
RAPSN	C537378
PTH1R	C537564
FOXC2	C537710
AK2	C538361
ERCC3	D054463
ERCC3	C536559
ERCC2	D054463
ERCC2	C536559
MPLKIP	D054463
MPLKIP	C536559
GTF2H5	D054463
GTF2H5	C536559
MYD88	D008258
MECOM	D009190
GATA2	D009190
CCND1	D020522
ATM	D020522
IGH	D020522
TIMM8A	C535808
FGFR3	C537369
ATP2A1	C536607
FSHB	C537070
SLC26A3	C536210
BCS1L	C537934
CP	C536004
SLC19A2	C536510
PTH1R	C537914
EXT2	C538356
ALX4	C538356
PHF21A	C538356
ABCC6	C537440
ENPP1	C537440
ETHE1	C535737
CXCR4	C536697
MITF	C536919
DYSF	C537480
PDGFRA	D046152
KIT	D046152
SDHC	D046152
SDHA	D046152
SDHB	D046152
COCH	D008575
SC5D	C537880
MET	C538614
TFAP2B	C538076
FZD4	D012178
LRP5	D012178
NDP	D012178
FGF3	C548011
RELN	C537848
POLH	C536766
COL5A1	C536195
COL5A2	C536195
COL1A1	C536194
COL5A1	C536194
COL5A2	C536194
LMNA	C535705
ZMPSTE24	C535706
TREX1	C535924
SAMHD1	C535924
TFG	C535717
SCN10A	D009477
SCN10A	D000699
SCN11A	D009477
SCN11A	D000699
SCN9A	D009477
SCN9A	D000699
SLC27A4	C536271
FLVCR1	C536343
KRT14	C535374
COL4A4	C536586
COL4A3	C536586
COL4A4	C536587
COL4A3	C536587
DYNC2H1	C537602
WDR60	C537602
IFT80	C537602
WDR34	C537602
WDR35	C537602
GNAS	D005359
GNAS	D005358
HNF1B	C535520
TBX15	C535550
POP1	C538256
RMRP	C538256
COL2A1	C536017
SLC26A2	C536016
TRIP11	C536015
SLC26A2	C535504
COMP	C535501
MATN3	C535505
TRPV4	C535797
COL2A1	C535793
GPX4	C535798
PMP22	C538078
PMP22	C537986
COL2A1	C537492
FLNA	C538089
COL11A1	C537493
KCNE1	D029593
KCNQ1	D029593
KCNJ13	C536677
ATOH7	D054514
FZD4	D054514
NDP	D054514
PITX2	C535684
CTNNB1	D018296
CYP11B1	C535978
KRT14	C535959
KRT5	C535959
KRT14	C535961
KRT5	C535961
PLEC	C535962
COL7A1	C536979
KIT	D054705
TYR	C537729
TYRP1	C537731
TYRP1	C537189
OCA2	C537730
MC1R	C537730
GNAS	D011556
GNAS	C548076
MLPH	C537303
MYO5A	C537303
RAB27A	C537302
MYO5A	C537301
PDP1	C536258
BTD	D028921
HLCS	D028922
HSD3B7	C535442
LCAT	C538467
ALAS2	D046351
FECH	D046351
CPOX	D046349
HMBS	D017118
PCK2	C536655
MMAA	C537360
MMAB	C537361
ATP8B1	C535933
ABCB11	C535934
TJP2	C535934
ABCB4	C535935
CYP7B1	C566340
AKR1D1	C535443
ARSE	C535941
TNFRSF11A	C536335
MGP	C536167
SLC9A6	C537450
PHF8	C537333
TET2	D000754
NRAS	D054429
NF1	D054429
PTPN11	D054429
KRAS	D054429
CBL	D054429
CSF3R	D015467
MYB	D015471
GATA1	D015471
KRT1	C536088
SOX3	C538388
APC	D005736
WT1	D058405
EWSR1	D058405
HOXA2	C537772
FOXE3	C537786
GLMN	C536827
RNASET2	C567845
SERPINI1	C536841
MTAP	C536169
SEPN1	C535683
ITM2B	C538209
ITM2B	C538208
HNF1B	D021782
HNF1B	D021782
HNF1B	C537373
MEG3	C536471
RTL1	C536471
DLK1	C536471
CAV3	C535685
SLC52A2	C537111
SLC52A3	C537111
UROD	D017121
COL2A1	C535788
STX16	C548075
GNAS	C548075
CFH	D015432
CFHR1	D015432
GJA1	C538154
HOXD13	C538155
KIF22	C535784
CASR	C537145
IHH	C537088
GDF5	C537088
BMPR1B	C537093
GDF5	C537093
BMP2	C537089
BMPR1B	C537089
GDF5	C537089
DRD5	C567890
DRD5	C535428
HOXA2	C537772
ATRX	C537457
TP63	D001746
SMARCB1	C536641
NF2	C536641
LZTR1	C536641
COQ6	C536641
CLCN5	C538212
AGXT	C536414
SLC4A1	C538565
TLL1	C548006
CITED2	C548009
RET	C536911
NTRK1	C536911
PAX7	D018232
PAX3	D018232
FOXO1	D018232
RYR1	C536883
SLC25A19	C538247
GRIN2A	D018887
PNKD	C537181
PRRT2	C537181
KMT2A	D015456
FLT3	D015456
TET2	D000753
PDGFRB	D015477
ETV6	D015477
CSF3R	D054438
LMNA	D020389
LMNA	C537990
DMD	C537666
LTBP4	D020388
DMD	D020388
ARFGEF2	D054091
ERMARD	D054091
FLNA	D054091
TACSTD2	C535480
KRT3	D053559
KRT12	D053559
TGFBI	C537881
TGFBI	C535474
TGFBI	C535476
TGFBI	C535942
UBIAD1	C535475
CRYGB	C538282
CRYBB3	C538282
CRYGD	C537955
MAF	C537955
MIP	C537955
CRYBB2	C537955
CRYGC	C535342
CRYGD	C535342
CRYGB	C535342
MIP	C535342
HSF4	C535342
CRYBA1	C535342
CRYBA4	C535342
CRYAA	C535342
CRYAB	C535342
CRYGB	C535341
MIP	C535341
NHS	C535341
CRYBB2	C535341
EPHA2	C535341
PLP1	C536857
FGF14	C537204
PRKCG	C537196
ATXN8	C537307
ATXN8OS	C537307
KCND3	C537198
IFRD1	C537197
TMEM240	C537200
KCNC3	C537195
SCA25	C537202
EEF2	C537203
AFG3L2	C537205
SCA20	C537199
PDYN	C537201
UROD	D017119
HFE	D017119
LITAF	C537984
EGR2	C537985
GJB1	C535919
GDAP1	C535415
MED25	C537991
GNA11	C537146
AP2S1	C537147
SPG29	C536863
KCNH2	D029597
KCNJ5	D029597
KCNE1	D029597
KCNE2	D029597
CAV3	D029597
ANK2	D029597
ALG10	D029597
KCNQ1	D029597
AKAP9	D029597
NOS1AP	D029597
SCN5A	D029597
SCN4B	D029597
SNTA1	D029597
ATL1	C536864
KIF5A	C537482
SPG9	C536868
KIAA0196	C536867
NIPA1	C536866
CYP7B1	C536871
SPAST	C536865
SPG19	C536856
SPG16	C536643
SPG14	C537486
ZFYVE26	C536642
RTN2	C537484
HSPD1	C537485
SPG25	C536861
B4GALNT1	C536862
F12	D056828
VCP	D057178
GRN	D057178
CHMP2B	D057178
TREM2	D057178
PSEN1	D057178
MAPT	D057178
C9ORF72	D057178
SLC24A4	C536606
KLK4	C536606
WDR72	C536606
C4ORF26	C536606
AMELX	C536606
MMP20	C536606
SERPING1	C538577
APP	D028243
APP	C537944
FUS	D018208
DDIT3	D018208
ABCB11	C535931
ATP8B1	C535930
MTMR2	C535420
SBF2	C535421
GDAP1	C535419
NDRG1	C535716
SH3TC2	C535423
EGR2	C535301
DICER1	D006106
ACADL	C535690
IFNGR1	C535530
CDC73	C564166
MEN1	C564166
BRAF	C535843
ITGB2	C535887
FLNA	C537394
TSHR	C566384
RET	C536209
ASCL1	C536209
PHOX2B	C536209
COL4A2	C536850
COL4A1	C536850
DSPP	C538215
